\relax 
\providecommand\hyper@newdestlabel[2]{}
\providecommand\HyperFirstAtBeginDocument{\AtBeginDocument}
\HyperFirstAtBeginDocument{\ifx\hyper@anchor\@undefined
\global\let\oldcontentsline\contentsline
\gdef\contentsline#1#2#3#4{\oldcontentsline{#1}{#2}{#3}}
\global\let\oldnewlabel\newlabel
\gdef\newlabel#1#2{\newlabelxx{#1}#2}
\gdef\newlabelxx#1#2#3#4#5#6{\oldnewlabel{#1}{{#2}{#3}}}
\AtEndDocument{\ifx\hyper@anchor\@undefined
\let\contentsline\oldcontentsline
\let\newlabel\oldnewlabel
\fi}
\fi}
\global\let\hyper@last\relax 
\gdef\HyperFirstAtBeginDocument#1{#1}
\providecommand\HyField@AuxAddToFields[1]{}
\providecommand\HyField@AuxAddToCoFields[2]{}
\newlabel{FirstPage}{{}{1}{}{Doc-Start}{}}
\@writefile{toc}{\contentsline {title}{First report of Metal Ligand Charge Tranfer of two Iridium Metal Complexes}{1}{section*.1}\protected@file@percent }
\@writefile{toc}{\contentsline {section}{\numberline {I}Methodology description}{2}{section*.2}\protected@file@percent }
\@writefile{lof}{\contentsline {figure}{\numberline {1}{\ignorespaces Target Ligands\relax }}{2}{figure.caption.3}\protected@file@percent }
\@writefile{toc}{\contentsline {section}{\numberline {II}Results for $Ir(C_3H_4N)_3$}{3}{section*.4}\protected@file@percent }
\@writefile{lot}{\contentsline {table}{\numberline {I}{\ignorespaces $Ir(C_3H_4N)_3$ Complex\relax }}{3}{table.caption.5}\protected@file@percent }
\providecommand*\caption@xref[2]{\@setref\relax\@undefined{#1}}
\newlabel{tab:table1}{{I}{3}{$Ir(C_3H_4N)_3$ Complex\relax }{table.caption.5}{}}
\@writefile{lof}{\contentsline {figure}{\numberline {2}{\ignorespaces HOMO-LUMO orbitals for $Ir(C_3H_4N)_3$\relax }}{4}{figure.caption.6}\protected@file@percent }
\@writefile{toc}{\contentsline {section}{\numberline {III}Results for $Ir(ppy)_3$}{4}{section*.7}\protected@file@percent }
\@writefile{lot}{\contentsline {table}{\numberline {II}{\ignorespaces $Ir(ppy)_3$ Complex\relax }}{4}{table.caption.8}\protected@file@percent }
\newlabel{tab:table1}{{II}{4}{$Ir(ppy)_3$ Complex\relax }{table.caption.8}{}}
\bibdata{infNotes}
\bibdata{infNotes}
\bibstyle{aipnum4-1}
\citation{REVTEX41Control}
\citation{aip41Control}
\@writefile{toc}{\contentsline {section}{\numberline {IV}PATH}{5}{section*.9}\protected@file@percent }
\newlabel{LastPage}{{}{5}{}{}{}}
